1 10 20
100 200 125
201 210 89
900 1000 174
65528 93842 351
24848 56865 340
43374 74353 340
44279 60816 340
64966 98595 351
13099 51459 324
10709 25619 282
11734 15105 276
73685 94952 351
49342 84643 351
30899 31437 285
31910 52855 340
8916 73564 340
61908 97788 351
10695 43651 324
44511 49224 314
35101 81316 351
35602 38949 324
39895 71179 340
52901 73543 335
4671 25518 282
56800 79407 351
45886 63419 340
52644 63564 335
13129 16435 276
12908 49549 324
36285 69825 340
67135 70193 312
27826 29651 272
33860 58006 340
92635 94709 315
15891 43306 324
67862 94246 351
5694 7431 262
18892 25123 282
9158 45217 324
44932 61895 340
7861 78890 351
29109 45419 324
70956 77861 351
33932 51281 324
19502 38424 324
12331 55865 340
27059 90574 351
2201 86776 351
19991 21175 256
27208 41462 324
10771 57592 340
15685 98173 351
46607 97823 351
66523 85609 351
7887 60324 340
19261 88939 351
46950 91863 351
77152 88540 338
26152 53712 340
10877 32908 308
2986 78414 351
2653 12786 268
41568 85180 351
24344 58596 340
42783 58294 340
19891 48797 324
38367 98927 351
15204 63236 340
34307 55749 340
10813 69770 340
39380 53374 340
25013 55787 340
32667 98232 351
2777 4856 238
19523 34213 308
72352 98857 351
24643 91726 351
38345 81639 351
1227 20188 279
16838 98703 351
16319 77451 351
79443 85014 320
18209 25023 282
17549 22864 279
22381 73734 340
16710 82405 351
32129 73402 340
41609 62039 340
23825 98410 351
33841 52970 340
3692 89323 351
6382 69217 340
7907 77783 351
36502 84538 351
57262 61568 335
23501 99001 351
54925 96887 351
27876 39444 324
473 60102 340
9119 24636 282
48641 82878 351
77155 89520 338
69478 72421 325
46639 64887 340
14953 66967 340
22433 31927 308
44349 98639 351
62213 75455 330
58544 97404 351
15774 60899 340
24742 98363 351
32477 91216 351
16198 28691 308
36798 44393 306
59464 71019 335
24385 61061 340
3507 51722 324
19946 83186 351
66422 82827 351
8458 25133 282
31832 98258 351
45784 98598 351
8500 60834 340
57589 99632 351
56783 80440 351
1452 37384 324
50250 61637 340
36842 53798 340
46147 53529 340
13883 56064 340
33057 55736 340
33090 55658 340
18819 28796 308
48444 82918 351
14029 53377 340
28060 46802 324
40344 94861 351
28894 38222 324
37954 40338 306
60249 85523 351
8443 35725 324
44528 50281 314
83022 90959 333
24480 54697 340
63621 75098 325
58646 81431 351
12578 31371 308
56954 92159 351
22256 94515 351
1334 78275 351
1235 44495 324
48620 51930 309
12240 23441 279
1312 39597 324
25975 74835 340
26291 47537 324
25194 47793 324
7963 22510 279
62478 64027 330
16007 41675 324
60451 65893 335
41331 53079 340
56849 57313 304
33328 80770 351
67193 77582 351
41937 74726 340
48857 94769 351
80300 97640 333
92449 95539 328
4779 32607 308
38145 50330 314
2830 22734 279
2174 87598 351
47355 82623 351
44821 56827 340
2571 62827 340
7981 99021 351
32372 59384 340
58671 80753 351
68488 86635 351
39323 47906 314
13633 26512 282
43195 72656 340
64354 86567 351
12077 43125 324
48676 72039 340
37582 62493 340
2956 64206 340
17475 80563 351
80927 87063 320
81413 83359 320
89136 97639 333
57042 74082 335
7227 38059 324
11414 38650 324
92454 92840 302
77084 91692 338
75875 79931 351
51919 71014 340
6209 88747 351
57813 84043 351
72269 92195 351
27188 86270 351
13500 45958 324
41696 55499 340
82797 98213 333
15920 62844 340
45212 79561 351
28518 90416 351
37521 94410 351
32517 83779 351
3675 30662 308
49722 76526 340
13955 68852 340
61557 85099 351
77055 86472 338
65699 81586 351
3358 63512 340
59115 94056 351
5305 54257 340
4383 84643 351
27794 89335 351
63236 92423 351
70619 81351 351
63367 72497 330
8721 43806 324
27550 83581 351
7411 69849 340
88868 98528 333
35490 82980 351
1343 61608 340
35737 90489 351
60305 93011 351
15860 74490 340
11938 66505 340
9401 69337 340
73928 77559 351
14390 86011 351
39366 66729 340
73228 87799 351
727 10146 262
51124 88620 351
26299 43520 324
30381 83257 351
14662 50172 324
37135 75983 340
45292 86461 351
10589 64663 340
42027 48012 314
13815 42914 324
7956 90477 351
2317 46563 324
51096 77430 351
6394 69501 340
41519 49550 314
45588 93686 351
9949 63626 340
8250 60187 340
3908 60499 340
30577 70223 340
21767 29361 308
84191 88737 333
30237 75031 340
18471 39560 324
31396 51153 324
69391 90941 351
63739 89137 351
22706 88677 351
18212 89607 351
9776 80525 351
4016 72472 340
20342 47861 324
9990 70820 340
17530 59381 340
28508 65634 340
67070 95799 351
62287 73435 330
63611 68687 312
63847 87021 351
82745 99372 333
34291 38469 324
65629 99991 351
52023 88209 351
49278 63720 340
8190 34677 311
2448 11524 268
4116 72039 340
16369 25275 282
55837 99273 351
2045 83562 351
42027 75271 340
43324 83100 351
54116 97707 351
56422 96632 351
1475 43992 324
56023 58209 322
74365 75734 325
2315 17519 276
45899 68193 340
90899 94282 333
27803 99983 351
63946 91756 351
15352 40624 324
6922 44870 324
1025 62810 340
52989 59201 322
64393 68814 312
25691 45616 324
50185 88629 351
76721 84137 351
58303 77973 351
6878 55497 340
29450 33918 285
7433 41244 324
8455 63116 340
49256 70999 340
72007 73278 294
2727 27507 308
46213 96183 351
4638 41161 324
38378 70341 340
63445 93187 351
4459 87567 351
81448 97360 333
33054 65893 340
6347 14807 276
64866 89102 351
14071 97606 351
47879 68369 340
9379 15194 276
1504 31234 308
9873 65279 340
7218 92600 351
19647 78607 351
27853 85346 351
17640 52537 340
43315 62722 340
13291 48168 324
68648 71515 325
13686 37983 324
12230 66405 340
39166 86684 351
58958 63239 335
14858 92574 351
14215 72586 340
3640 21155 279
48182 70174 340
1572 59810 340
64653 91370 351
4872 12675 268
62265 64786 330
81984 90832 333
8711 67724 340
29837 32384 285
58965 96656 351
33579 78975 351
12120 91932 351
6955 18167 279
11477 66973 340
18218 81711 351
16144 45814 324
56087 65857 335
4086 29425 308
63121 64208 330
14883 23059 279
18973 28023 308
49333 86458 351
29587 30771 272
752 29903 308
52736 82303 351
525 44667 324
38611 47987 314
51482 58765 340
87545 98846 333
86131 93498 333
58733 90032 351
58973 59266 273
25076 73062 340
72022 83150 351
82378 89814 333
22993 94742 351
20499 39701 324
32357 70560 340
6949 15353 276
17667 99939 351
34991 94603 351
70995 85787 351
10104 13758 276
17589 70360 340
54 94240 351
61662 74698 330
89206 96421 333
54611 63931 335
77674 97692 338
16924 49666 324
23374 44900 324
90201 98788 333
11098 52508 324
16509 66115 340
16908 92674 351
17785 57350 340
40526 92439 351
54799 74388 335
